{
	"info": {
		"_postman_id": "9d211cab-28a3-42af-95fe-5ccd86f0f9b8",
		"name": "Tests",
		"schema": "https://schema.getpostman.com/json/collection/v2.1.0/collection.json"
	},
	"item": [
		{
			"name": "Get Country",
			"event": [
				{
					"listen": "test",
					"script": {
						"exec": [
							"//The HTTP status code",
							"pm.test(\"response is ok\", function(){",
							"    pm.response.to.have.status(200);",
							"});",
							"",
							"//The response payload",
							"pm.test(\"response must be valid and have a body\", function () {",
							"     // assert that the status code is 200",
							"     pm.response.to.be.ok; // info, success, redirection, clientError,  serverError, are other variants",
							"     pm.response.to.be.json;",
							"});",
							"",
							"pm.test(\"API response contains the expected fields\", () => {",
							"  const response = pm.response.json();",
							"  //check if first piece of data has property id",
							"  pm.expect(response.result[0]).has.haveOwnProperty(\"id\")",
							"//   //check if within attributes various fields are present",
							"  pm.expect(response.result[0]).has.haveOwnProperty(\"currency\")",
							"",
							"  pm.expect(response.result[0]).has.haveOwnProperty(\"dwellings_no_facilities_rate\")",
							"  pm.expect(response.result[0]).has.haveOwnProperty(\"education_rate\")",
							"  pm.expect(response.result[0]).has.haveOwnProperty(\"flag_img\")",
							"  pm.expect(response.result[0]).has.haveOwnProperty(\"employment_rate\")",
							"  pm.expect(response.result[0]).has.haveOwnProperty(\"homicide_rate\")",
							"  pm.expect(response.result[0]).has.haveOwnProperty(\"household_net_worth\")",
							"  pm.expect(response.result[0]).has.haveOwnProperty(\"language\")",
							"  pm.expect(response.result[0]).has.haveOwnProperty(\"lat\")",
							"  pm.expect(response.result[0]).has.haveOwnProperty(\"life_expectancy\")",
							"  pm.expect(response.result[0]).has.haveOwnProperty(\"life_satisfaction_rating\")",
							"  pm.expect(response.result[0]).has.haveOwnProperty(\"long\")",
							"  pm.expect(response.result[0]).has.haveOwnProperty(\"long_hours_rate\")",
							"  pm.expect(response.result[0]).has.haveOwnProperty(\"name\")",
							"  pm.expect(response.result[0]).has.haveOwnProperty(\"population\")",
							"  pm.expect(response.result[0]).has.haveOwnProperty(\"region\")",
							"  pm.expect(response.result[0]).has.haveOwnProperty(\"voter_turnout\")",
							"  pm.expect(response.result[0]).has.haveOwnProperty(\"charities\")",
							"",
							"",
							"",
							"",
							"",
							"",
							"",
							"",
							"",
							"",
							"",
							"",
							"",
							"",
							"",
							"",
							"",
							"",
							"",
							"});",
							"",
							"pm.test(\"API responds within the expected treshhold\", () => {",
							"  // set the response time in milliseconds",
							"  const expectedTimeInMilliseconds = 5000;",
							"",
							"  pm.expect(pm.response.responseTime).to.be.lessThan(",
							"    expectedTimeInMilliseconds + 1,",
							"    `The endpoint did not respond within ${expectedTimeInMilliseconds} ms. Response came in ${pm.response.responseTime} ms`",
							"  );",
							"});",
							"",
							""
						],
						"type": "text/javascript"
					}
				}
			],
			"protocolProfileBehavior": {
				"disabledSystemHeaders": {}
			},
			"request": {
				"method": "GET",
				"header": [
					{
						"key": "Accept",
						"value": "application/vnd.api+json",
						"type": "text",
						"disabled": true
					}
				],
				"url": {
					"raw": "https://api.findahome.me/countries",
					"protocol": "https",
					"host": [
						"api",
						"findahome",
						"me"
					],
					"path": [
						"countries"
					]
				}
			},
			"response": []
		},
		{
			"name": "Get Country By ID",
			"event": [
				{
					"listen": "test",
					"script": {
						"exec": [
							"//The HTTP status code",
							"pm.test(\"response is ok\", function(){",
							"    pm.response.to.have.status(200);",
							"});",
							"",
							"//The response payload",
							"pm.test(\"response must be valid and have a body\", function () {",
							"     // assert that the status code is 200",
							"     pm.response.to.be.ok; // info, success, redirection, clientError,  serverError, are other variants",
							"     pm.response.to.be.json;",
							"});",
							"",
							"pm.test(\"API response contains the expected fields\", () => {",
							"  const response = pm.response.json();",
							"  //check if first piece of data has property id",
							"  pm.expect(response).has.haveOwnProperty(\"id\")",
							"//   //check if within attributes various fields are present",
							"    pm.expect(response).has.haveOwnProperty(\"currency\")",
							"",
							"  pm.expect(response).has.haveOwnProperty(\"dwellings_no_facilities_rate\")",
							"  pm.expect(response).has.haveOwnProperty(\"education_rate\")",
							"  pm.expect(response).has.haveOwnProperty(\"flag_img\")",
							"  pm.expect(response).has.haveOwnProperty(\"employment_rate\")",
							"  pm.expect(response).has.haveOwnProperty(\"homicide_rate\")",
							"  pm.expect(response).has.haveOwnProperty(\"household_net_worth\")",
							"  pm.expect(response).has.haveOwnProperty(\"language\")",
							"  pm.expect(response).has.haveOwnProperty(\"lat\")",
							"  pm.expect(response).has.haveOwnProperty(\"life_expectancy\")",
							"  pm.expect(response).has.haveOwnProperty(\"life_satisfaction_rating\")",
							"  pm.expect(response).has.haveOwnProperty(\"long\")",
							"  pm.expect(response).has.haveOwnProperty(\"long_hours_rate\")",
							"  pm.expect(response).has.haveOwnProperty(\"name\")",
							"  pm.expect(response).has.haveOwnProperty(\"population\")",
							"  pm.expect(response).has.haveOwnProperty(\"region\")",
							"  pm.expect(response).has.haveOwnProperty(\"voter_turnout\")",
							"  pm.expect(response).has.haveOwnProperty(\"charities\")",
							"",
							"",
							"",
							"",
							"",
							"",
							"",
							"",
							"",
							"",
							"",
							"",
							"",
							"",
							"",
							"",
							"",
							"",
							"",
							"});",
							"",
							"pm.test(\"API responds within the expected treshhold\", () => {",
							"  // set the response time in milliseconds",
							"  const expectedTimeInMilliseconds = 5000;",
							"",
							"  pm.expect(pm.response.responseTime).to.be.lessThan(",
							"    expectedTimeInMilliseconds + 1,",
							"    `The endpoint did not respond within ${expectedTimeInMilliseconds} ms. Response came in ${pm.response.responseTime} ms`",
							"  );",
							"});",
							"",
							""
						],
						"type": "text/javascript"
					}
				}
			],
			"protocolProfileBehavior": {
				"disabledSystemHeaders": {
					"accept": true
				}
			},
			"request": {
				"method": "GET",
				"header": [
					{
						"key": "Accept",
						"value": "application/vnd.api+json",
						"type": "text"
					}
				],
				"url": {
					"raw": "https://api.findahome.me/countries/AUS",
					"protocol": "https",
					"host": [
						"api",
						"findahome",
						"me"
					],
					"path": [
						"countries",
						"AUS"
					]
				}
			},
			"response": []
		},
		{
			"name": "Get Charity",
			"event": [
				{
					"listen": "test",
					"script": {
						"exec": [
							"//The HTTP status code",
							"pm.test(\"response is ok\", function(){",
							"    pm.response.to.have.status(200);",
							"});",
							"",
							"//The response payload",
							"pm.test(\"response must be valid and have a body\", function () {",
							"     // assert that the status code is 200",
							"     pm.response.to.be.ok; // info, success, redirection, clientError,  serverError, are other variants",
							"     pm.response.to.be.json;",
							"});",
							"",
							"pm.test(\"API response contains the expected fields\", () => {",
							"  const response = pm.response.json();",
							"  //check if first piece of data has property id",
							"  pm.expect(response.result[0]).has.haveOwnProperty(\"id\")",
							"  //check if within attributes various fields are present",
							"  pm.expect(response.result[0]).has.haveOwnProperty(\"status\")",
							"  pm.expect(response.result[0]).has.haveOwnProperty(\"funding\")",
							"  pm.expect(response.result[0]).has.haveOwnProperty(\"activities\")",
							"  pm.expect(response.result[0]).has.haveOwnProperty(\"address\")",
							"  pm.expect(response.result[0]).has.haveOwnProperty(\"goal\")",
							"  pm.expect(response.result[0]).has.haveOwnProperty(\"image\")",
							"  pm.expect(response.result[0]).has.haveOwnProperty(\"name\")",
							"  pm.expect(response.result[0]).has.haveOwnProperty(\"total_donations\")",
							"  pm.expect(response.result[0]).has.haveOwnProperty(\"approval_date\")",
							"  pm.expect(response.result[0]).has.haveOwnProperty(\"url\")",
							"  // check relationships",
							"  pm.expect(response.result[0]).has.haveOwnProperty(\"countries\")",
							"  pm.expect(response.result[0]).has.haveOwnProperty(\"news\")",
							"  pm.expect(response.result[0]).has.haveOwnProperty(\"themes\")",
							"",
							"",
							"",
							"});",
							"",
							"pm.test(\"API responds within the expected treshhold\", () => {",
							"  // set the response time in milliseconds",
							"  const expectedTimeInMilliseconds = 5000;",
							"",
							"  pm.expect(pm.response.responseTime).to.be.lessThan(",
							"    expectedTimeInMilliseconds + 1,",
							"    `The endpoint did not respond within ${expectedTimeInMilliseconds} ms. Response came in ${pm.response.responseTime} ms`",
							"  );",
							"});",
							"",
							""
						],
						"type": "text/javascript"
					}
				}
			],
			"protocolProfileBehavior": {
				"disabledSystemHeaders": {}
			},
			"request": {
				"method": "GET",
				"header": [
					{
						"key": "Accept",
						"value": "application/vnd.api+json",
						"type": "text",
						"disabled": true
					}
				],
				"url": {
					"raw": "https://api.findahome.me/charities",
					"protocol": "https",
					"host": [
						"api",
						"findahome",
						"me"
					],
					"path": [
						"charities"
					],
					"query": [
						{
							"key": "page[number]",
							"value": "1",
							"disabled": true
						},
						{
							"key": "page[size]",
							"value": "20",
							"disabled": true
						}
					]
				}
			},
			"response": []
		},
		{
			"name": "Get Charity by ID",
			"event": [
				{
					"listen": "test",
					"script": {
						"exec": [
							"//The HTTP status code",
							"pm.test(\"response is ok\", function(){",
							"    pm.response.to.have.status(200);",
							"});",
							"",
							"//The response payload",
							"pm.test(\"response must be valid and have a body\", function () {",
							"     // assert that the status code is 200",
							"     pm.response.to.be.ok; // info, success, redirection, clientError,  serverError, are other variants",
							"     pm.response.to.be.json;",
							"});",
							"",
							"pm.test(\"API response contains the expected fields\", () => {",
							"  const response = pm.response.json();",
							"  //check if first piece of data has property id",
							"  pm.expect(response).has.haveOwnProperty(\"id\")",
							"  //check if within attributes various fields are present",
							"  pm.expect(response).has.haveOwnProperty(\"status\")",
							"  pm.expect(response).has.haveOwnProperty(\"funding\")",
							"  pm.expect(response).has.haveOwnProperty(\"activities\")",
							"  pm.expect(response).has.haveOwnProperty(\"address\")",
							"  pm.expect(response).has.haveOwnProperty(\"goal\")",
							"  pm.expect(response).has.haveOwnProperty(\"image\")",
							"  pm.expect(response).has.haveOwnProperty(\"name\")",
							"  pm.expect(response).has.haveOwnProperty(\"total_donations\")",
							"  pm.expect(response).has.haveOwnProperty(\"approval_date\")",
							"  pm.expect(response).has.haveOwnProperty(\"url\")",
							"  // check relationships",
							"  pm.expect(response).has.haveOwnProperty(\"countries\")",
							"  pm.expect(response).has.haveOwnProperty(\"news\")",
							"  pm.expect(response).has.haveOwnProperty(\"themes\")",
							"",
							"",
							"",
							"});",
							"",
							"pm.test(\"API responds within the expected treshhold\", () => {",
							"  // set the response time in milliseconds",
							"  const expectedTimeInMilliseconds = 5000;",
							"",
							"  pm.expect(pm.response.responseTime).to.be.lessThan(",
							"    expectedTimeInMilliseconds + 1,",
							"    `The endpoint did not respond within ${expectedTimeInMilliseconds} ms. Response came in ${pm.response.responseTime} ms`",
							"  );",
							"});",
							"",
							""
						],
						"type": "text/javascript"
					}
				}
			],
			"protocolProfileBehavior": {
				"disabledSystemHeaders": {}
			},
			"request": {
				"method": "GET",
				"header": [
					{
						"key": "Accept",
						"value": "application/vnd.api+json",
						"type": "text",
						"disabled": true
					}
				],
				"url": {
					"raw": "https://api.findahome.me/charities/1-for-higher-education-project",
					"protocol": "https",
					"host": [
						"api",
						"findahome",
						"me"
					],
					"path": [
						"charities",
						"1-for-higher-education-project"
					],
					"query": [
						{
							"key": "page[number]",
							"value": "1",
							"disabled": true
						},
						{
							"key": "page[size]",
							"value": "20",
							"disabled": true
						}
					]
				}
			},
			"response": []
		},
		{
			"name": "Get News",
			"event": [
				{
					"listen": "test",
					"script": {
						"exec": [
							"//The HTTP status code",
							"pm.test(\"response is ok\", function(){",
							"    pm.response.to.have.status(200);",
							"});",
							"",
							"//The response payload",
							"pm.test(\"response must be valid and have a body\", function () {",
							"     // assert that the status code is 200",
							"     pm.response.to.be.ok; // info, success, redirection, clientError,  serverError, are other variants",
							"     pm.response.to.be.json;",
							"});",
							"",
							"pm.test(\"API response contains the expected fields\", () => {",
							"  const response = pm.response.json();",
							"  //check if first piece of data has property id",
							"  pm.expect(response.result[0]).has.haveOwnProperty(\"id\")",
							"  //check if within attributes various fields are present",
							"  pm.expect(response.result[0]).has.haveOwnProperty(\"author\")",
							"  pm.expect(response.result[0]).has.haveOwnProperty(\"description\")",
							"  pm.expect(response.result[0]).has.haveOwnProperty(\"category\")",
							"  pm.expect(response.result[0]).has.haveOwnProperty(\"image\")",
							"  pm.expect(response.result[0]).has.haveOwnProperty(\"published_at\")",
							"  pm.expect(response.result[0]).has.haveOwnProperty(\"source\")",
							"  pm.expect(response.result[0]).has.haveOwnProperty(\"language\")",
							"  pm.expect(response.result[0]).has.haveOwnProperty(\"title\")",
							"  pm.expect(response.result[0]).has.haveOwnProperty(\"url\")",
							"  pm.expect(response.result[0]).has.haveOwnProperty(\"id\")",
							"  pm.expect(response.result[0]).has.haveOwnProperty(\"charities\")",
							"",
							"  ",
							"  ",
							"",
							"});",
							"",
							"pm.test(\"API responds within the expected treshhold\", () => {",
							"  // set the response time in milliseconds",
							"  const expectedTimeInMilliseconds = 5000;",
							"",
							"  pm.expect(pm.response.responseTime).to.be.lessThan(",
							"    expectedTimeInMilliseconds + 1,",
							"    `The endpoint did not respond within ${expectedTimeInMilliseconds} ms. Response came in ${pm.response.responseTime} ms`",
							"  );",
							"});",
							"",
							""
						],
						"type": "text/javascript"
					}
				}
			],
			"protocolProfileBehavior": {
				"disabledSystemHeaders": {}
			},
			"request": {
				"method": "GET",
				"header": [
					{
						"key": "Accept",
						"value": "application/vnd.api+json",
						"type": "text",
						"disabled": true
					}
				],
				"url": {
					"raw": "https://api.findahome.me/news",
					"protocol": "https",
					"host": [
						"api",
						"findahome",
						"me"
					],
					"path": [
						"news"
					]
				}
			},
			"response": []
		},
		{
			"name": "Get News By ID",
			"event": [
				{
					"listen": "test",
					"script": {
						"exec": [
							"//The HTTP status code",
							"pm.test(\"response is ok\", function(){",
							"    pm.response.to.have.status(200);",
							"});",
							"",
							"//The response payload",
							"pm.test(\"response must be valid and have a body\", function () {",
							"     // assert that the status code is 200",
							"     pm.response.to.be.ok; // info, success, redirection, clientError,  serverError, are other variants",
							"     pm.response.to.be.json;",
							"});",
							"",
							"pm.test(\"API response contains the expected fields\", () => {",
							"  const response = pm.response.json();",
							"  //check if first piece of data has property id",
							"  pm.expect(response).has.haveOwnProperty(\"id\")",
							"  //check if within attributes various fields are present",
							"  pm.expect(response).has.haveOwnProperty(\"author\")",
							"  pm.expect(response).has.haveOwnProperty(\"description\")",
							"  pm.expect(response).has.haveOwnProperty(\"category\")",
							"  pm.expect(response).has.haveOwnProperty(\"image\")",
							"  pm.expect(response).has.haveOwnProperty(\"published_at\")",
							"  pm.expect(response).has.haveOwnProperty(\"source\")",
							"  pm.expect(response).has.haveOwnProperty(\"language\")",
							"  pm.expect(response).has.haveOwnProperty(\"title\")",
							"  pm.expect(response).has.haveOwnProperty(\"url\")",
							"  pm.expect(response).has.haveOwnProperty(\"id\")",
							"  pm.expect(response).has.haveOwnProperty(\"charities\")",
							"",
							"  ",
							"  ",
							"",
							"});",
							"",
							"pm.test(\"API responds within the expected treshhold\", () => {",
							"  // set the response time in milliseconds",
							"  const expectedTimeInMilliseconds = 5000;",
							"",
							"  pm.expect(pm.response.responseTime).to.be.lessThan(",
							"    expectedTimeInMilliseconds + 1,",
							"    `The endpoint did not respond within ${expectedTimeInMilliseconds} ms. Response came in ${pm.response.responseTime} ms`",
							"  );",
							"});",
							"",
							""
						],
						"type": "text/javascript"
					}
				}
			],
			"protocolProfileBehavior": {
				"disabledSystemHeaders": {}
			},
			"request": {
				"method": "GET",
				"header": [
					{
						"key": "Accept",
						"value": "application/vnd.api+json",
						"type": "text",
						"disabled": true
					}
				],
				"url": {
					"raw": "https://api.findahome.me/news/a-foundation-for-life",
					"protocol": "https",
					"host": [
						"api",
						"findahome",
						"me"
					],
					"path": [
						"news",
						"a-foundation-for-life"
					]
				}
			},
			"response": []
		}
	],
	"event": [
		{
			"listen": "prerequest",
			"script": {
				"type": "text/javascript",
				"exec": [
					""
				]
			}
		},
		{
			"listen": "test",
			"script": {
				"type": "text/javascript",
				"exec": [
					""
				]
			}
		}
	],
	"variable": [
		{
			"key": "url",
			"value": "https://api.findahome.me/",
			"type": "string"
		}
	]
}